<?xml version="1.0" encoding="UTF-8" standalone="no"?>
<svg
   xmlns:dc="http://purl.org/dc/elements/1.1/"
   xmlns:cc="http://creativecommons.org/ns#"
   xmlns:rdf="http://www.w3.org/1999/02/22-rdf-syntax-ns#"
   xmlns:svg="http://www.w3.org/2000/svg"
   xmlns="http://www.w3.org/2000/svg"
   xmlns:sodipodi="http://sodipodi.sourceforge.net/DTD/sodipodi-0.dtd"
   xmlns:inkscape="http://www.inkscape.org/namespaces/inkscape"
   version="1.1"
   id="svg1"
   width="16"
   height="16"
   viewBox="0 0 16 16"
   sodipodi:docname="draw-path-symbolic.svg"
   inkscape:version="1.0alpha2 (119fb3b5e8, 2019-06-21, custom)">
  <style
     id="s0">.base {  }
.success {  }
.warning {  }
.error {  }
.dark {  }
</style>
  <style
     id="s2"> 
     @import '../../highlights.css'; 
  </style>
  <metadata
     id="metadata2927">
    <rdf:RDF>
      <cc:Work
         rdf:about="">
        <dc:format>image/svg+xml</dc:format>
        <dc:type
           rdf:resource="http://purl.org/dc/dcmitype/StillImage" />
        <dc:title />
      </cc:Work>
    </rdf:RDF>
  </metadata>
  <defs
     id="defs2925">
    <inkscape:path-effect
       attempt_force_join="true"
       miter_limit="100"
       linejoin_type="extrp_arc"
       line_width="1.7"
       linecap_type="butt"
       is_visible="true"
       id="path-effect2216"
       effect="join_type" />
  </defs>
  <sodipodi:namedview
     objecttolerance="10"
     gridtolerance="10"
     guidetolerance="10"
     id="namedview"
     showgrid="true"
     inkscape:zoom="11.2"
     inkscape:cx="18.45432"
     inkscape:cy="20.532635"
     inkscape:window-width="1920"
     inkscape:window-height="1016"
     inkscape:window-x="0"
     inkscape:window-y="27"
     inkscape:window-maximized="1"
     inkscape:current-layer="svg1"
     inkscape:document-rotation="0"
     inkscape:snap-global="false">
    <inkscape:grid
       type="xygrid"
       id="grid" />
  </sodipodi:namedview>
  <g
     inkscape:label="draw-path"
     id="g0">
    <path
       id="background"
       d="M 0,0 H 16 V 16 H 0 Z"
       style="opacity:0"
       inkscape:connector-curvature="0" />
    <path
       inkscape:connector-curvature="0"
       id="path1021"
       d="m 926.04996,243.32195 c -0.0458,-4.83381 4.62875,-17.36777 20.08641,-17.49932 l -0.0145,-1.69994 c -16.31548,0.13885 -21.82748,13.34625 -21.77187,19.21536 z"
       class="st5  base"
       style="opacity:0.5"
       inkscape:path-effect="#path-effect2216"
       inkscape:original-d="m 925.2,243.33 c -0.0507,-5.35146 5.04257,-18.22214 20.92914,-18.35734"
       transform="matrix(0.47265641,0,0,0.47265641,-435.46146,-104.35914)"
       sodipodi:nodetypes="cc" />
    <path
       id="rect1023"
       d="M 0.15704247,8.7459183 H 4.0591705 V 12.648046 H 0.15704247 Z"
       class="success" />
    <path
       id="rect946"
       d="m 1.7965699,1.9999998 h 0.623073 V 12.648045 h -0.623073 z"
       class="success" />
    <path
       class="base"
       id="polygon1025"
       d="M 5.6986783,15.971348 13.178561,13.565393 14.545982,8.9992981 15.774274,7.7710084 14.810833,5.8965868 12.93897,4.930587 11.710679,6.158877 7.1394668,7.5262997 4.733513,15.00618 8.6666,11.073094 8.9059415,9.2927744 11.873548,8.8338792 11.412086,11.798918 9.631766,12.03826 Z"
       inkscape:connector-curvature="0"
       sodipodi:nodetypes="ccccccccccccccc" />
    <path
       id="circle1027"
       d="M 4.0520368,2.0151236 A 1.9439304,1.9439304 0 0 1 2.1081064,3.959054 1.9439304,1.9439304 0 0 1 0.16417599,2.0151236 1.9439304,1.9439304 0 0 1 2.1081064,0.07119322 1.9439304,1.9439304 0 0 1 4.0520368,2.0151236"
       class="success" />
  </g>
</svg>
